Assessment 3 Business Report
…
foodco2_cla_prep <- prep(foodco2_cla_recipe, training= food_co2_train)

For Regression model:

foodco2_reg_prep <- prep(foodco2_reg_recipe, training= food_co2_train)

2.4 Bake the recipe - bake()

For Classification model:

foodco2_cla_bake <- bake(foodco2_cla_prep, food_co2_train)

foodco2_cla_bake

## # A tibble: 1,072 x 3
##    co2_emission consumption main_category
##           <dbl>       <dbl> <fct>        
##  1      -0.326       -0.292 non_animal   
##  2      -0.464       -0.558 animal       
##  3      -0.399       -0.424 non_animal   
##  4       0.200        0.968 animal       
##  5      -0.0674      -0.535 animal       
##  6      -0.323        2.09  non_animal   
##  7      -0.456       -0.512 non_animal   
##  8       0.483       -0.485 animal       
##  9      -0.473       -0.560 non_animal   
## 10      -0.354       -0.254 non_animal   
## # ... with 1,062 more rows

For Regression model:

foodco2_reg_bake <- bake(foodco2_reg_prep, food_co2_train)

foodco2_reg_bake

## # A tibble: 1,072 x 3
##    food_category            consumption co2_emission
##    <fct>                          <dbl>        <dbl>
##  1 Nuts inc. Peanut Butter       -0.292        24.4 
##  2 Pork                          -0.558         2.62
##  3 Nuts inc. Peanut Butter       -0.424        13.0 
##  4 Milk - inc. cheese             0.968       108.  
##  5 Lamb & Goat                   -0.535        65.5 
##  6 Wheat and Wheat Products       2.09         25.0 
##  7 Rice                          -0.512         3.84
##  8 Lamb & Goat                   -0.485       153.  
##  9 Nuts inc. Peanut Butter       -0.560         1.19
## 10 Rice                          -0.254        20.0 
## # ... with 1,062 more rows
…
